[{"line":1,"elements":[{"line":3,"name":"get all active users","description":"","id":"get-all-active-users","type":"scenario","keyword":"Scenario","steps":[{"name":"def query = { status : 'active'}","result":{"duration":2218369,"status":"passed"},"match":{"location":"karate","arguments":[]},"keyword":"*","line":4,"doc_string":{"content_type":"","value":"21:02:07.575 karate.env system property was:","line":4}},{"name":"url baseUrl + '\/public\/v1\/users'","result":{"duration":3036553,"status":"passed"},"match":{"location":"karate","arguments":[]},"keyword":"Given","line":5},{"name":"params query","result":{"duration":100469,"status":"passed"},"match":{"location":"karate","arguments":[]},"keyword":"And","line":6},{"name":"method GET","result":{"duration":1480834644,"status":"passed"},"match":{"location":"karate","arguments":[]},"keyword":"When","line":7,"doc_string":{"content_type":"","value":"21:02:07.911 request:\n1 > GET https:\/\/gorest.co.in\/public\/v1\/users?status=active\n1 > Accept-Encoding: gzip,deflate\n1 > Connection: Keep-Alive\n1 > Host: gorest.co.in\n1 > User-Agent: Apache-HttpClient\/4.5.12 (Java\/1.8.0_321)\n\n21:02:09.105 response time in milliseconds: 1189.46\n1 < 200\n1 < CF-Cache-Status: DYNAMIC\n1 < CF-RAY: 7783382d788b2323-ORD\n1 < Cache-Control: max-age=0, private, must-revalidate\n1 < Connection: keep-alive\n1 < Content-Type: application\/json; charset=utf-8\n1 < Date: Mon, 12 Dec 2022 03:02:09 GMT\n1 < NEL: {\"success_fraction\":0,\"report_to\":\"cf-nel\",\"max_age\":604800}\n1 < Report-To: {\"endpoints\":[{\"url\":\"https:\\\/\\\/a.nel.cloudflare.com\\\/report\\\/v3?s=BIZBmm2f4FeTYQ8MGL%2BUcg9WuTD8edLIhyMwnYr%2FLpahZhok260Ga3NANmdYMHbWXD%2FzjFwP%2BjiVMJlxlwcY%2BoUgwBUx%2Fqf6xUEqu%2FHId%2FfUn3oqBYORpf1agyWS9SU%3D\"}],\"group\":\"cf-nel\",\"max_age\":604800}\n1 < Server: cloudflare\n1 < Transfer-Encoding: chunked\n1 < alt-svc: h3=\":443\"; ma=86400, h3-29=\":443\"; ma=86400\n1 < etag: W\/\"0b9c0f8cc35e7200f29e481cee351e64\"\n1 < referrer-policy: strict-origin-when-cross-origin\n1 < vary: Origin\n1 < x-content-type-options: nosniff\n1 < x-download-options: noopen\n1 < x-frame-options: SAMEORIGIN\n1 < x-permitted-cross-domain-policies: none\n1 < x-request-id: 62b6f4b5-739b-455e-b19d-f16a7cef884f\n1 < x-runtime: 0.026606\n1 < x-xss-protection: 0\n{\"meta\":{\"pagination\":{\"total\":2226,\"pages\":223,\"page\":1,\"limit\":10,\"links\":{\"previous\":null,\"current\":\"https:\/\/gorest.co.in\/public\/v1\/users?page=1\",\"next\":\"https:\/\/gorest.co.in\/public\/v1\/users?page=2\"}}},\"data\":[{\"id\":4495,\"name\":\"Mrs. Charvi Shah\",\"email\":\"mrs_charvi_shah@muller-johns.net\",\"gender\":\"male\",\"status\":\"active\"},{\"id\":4493,\"name\":\"Gajaadhar Tagore\",\"email\":\"gajaadhar_tagore@schuster.net\",\"gender\":\"male\",\"status\":\"active\"},{\"id\":4492,\"name\":\"Gov. Sarla Johar\",\"email\":\"gov_johar_sarla@turcotte-mraz.biz\",\"gender\":\"female\",\"status\":\"active\"},{\"id\":4490,\"name\":\"Aadrika Sharma\",\"email\":\"aadrika_sharma@thiel-murphy.com\",\"gender\":\"female\",\"status\":\"active\"},{\"id\":4488,\"name\":\"Opalina Patil\",\"email\":\"opalina_patil@towne.org\",\"gender\":\"female\",\"status\":\"active\"},{\"id\":4483,\"name\":\"Amaresh Asan\",\"email\":\"amaresh_asan@wilderman-dibbert.io\",\"gender\":\"male\",\"status\":\"active\"},{\"id\":4480,\"name\":\"Dron Bandopadhyay\",\"email\":\"dron_bandopadhyay@conn-cormier.com\",\"gender\":\"male\",\"status\":\"active\"},{\"id\":4476,\"name\":\"Nirbhay Pandey\",\"email\":\"nirbhay_pandey@dickens-kertzmann.co\",\"gender\":\"male\",\"status\":\"active\"},{\"id\":4475,\"name\":\"Rajinder Gowda\",\"email\":\"rajinder_gowda@murray.info\",\"gender\":\"male\",\"status\":\"active\"},{\"id\":4473,\"name\":\"Dr. Brahmaanand Bhattacharya\",\"email\":\"dr_bhattacharya_brahmaanand@kassulke.net\",\"gender\":\"female\",\"status\":\"active\"}]}","line":7}},{"name":"status 200","result":{"duration":14512,"status":"passed"},"match":{"location":"karate","arguments":[]},"keyword":"Then","line":8}]}],"name":"src\/test\/java\/features\/getApiWithQuery.feature","description":"Get API With Query Parameters","id":"get-api-with-query-parameters","keyword":"Feature","uri":"src\/test\/java\/features\/getApiWithQuery.feature"}]